{
  "profiles": {
    "EveTrader.Updater": {
      "commandName": "Project",
      "environmentVariables": {
        "ConnectionStrings:eve-market": "Server=192.168.86.154;Port=5432;Database=postgres;Uid=postgres;Pwd=postgres;"
      }
    }
  }
}